{
  "connections": {
    "MySqlDiary":{
      "host": "",
      "login" : "root",
      "password": ""
    },
    "Redis": {
      "host": "",
      "login" : "root",
      "password": ""
    },
    "RedisLRU": {
      "host": "",
      "login" : "root",
      "password": ""
    }
  }
}